\relax 
\citation{Ruso}
\citation{smith}
\citation{Bray}
\citation{history}
\citation{Kovac1999}
\citation{Tu2015}
\citation{Krenos2001}
\@writefile{toc}{\contentsline {section}{\numberline {I}Introducci\IeC {\'o}n}{1}}
\newlabel{BL}{{1}{1}}
\citation{Liao2016}
\citation{Budroni2016}
\citation{Li2016}
\citation{frances}
\citation{eldios}
\citation{Dynamic}
\citation{Ruso}
\@writefile{toc}{\contentsline {section}{\numberline {II}Modelo Matem\IeC {\'a}tico}{2}}
\newlabel{eq: reacciones}{{2}{2}}
\newlabel{tab: equations}{{II}{2}}
\newlabel{eq: diferenciales reactivos}{{3}{2}}
\newlabel{eq: diferenciales Brusselator X}{{4}{2}}
\newlabel{eq: diferenciales Brusselator Y}{{5}{2}}
\newlabel{eq:diferenciales Full Brusselator}{{6}{2}}
\newlabel{eq:diferenciales Brusselator Adimensional}{{9}{2}}
\citation{eldios}
\citation{eldios}
\citation{smith}
\newlabel{eq: diferenciales Brusselator X Ruso}{{11}{3}}
\newlabel{eq: diferenciales Brusselator Y Ruso}{{12}{3}}
\newlabel{eq: valores dimensionales}{{13}{3}}
\newlabel{eq: X_0 Y_0}{{14}{3}}
\newlabel{eq: ruso}{{16}{3}}
\@writefile{toc}{\contentsline {section}{\numberline {III}SIMULACI\'ON}{3}}
\newlabel{eq: punto de equilibrio}{{17}{3}}
\@writefile{lof}{\contentsline {figure}{\numberline {1}{\ignorespaces  Diagrama de bloques simple Brusselator en \textit  {Simulink}}}{3}}
\newlabel{fig: DiagramaBloques}{{1}{3}}
\@writefile{lof}{\contentsline {figure}{\numberline {2}{\ignorespaces  Soluci\IeC {\'o}n del sistema con A=1, B=3 luego de la simulaci\IeC {\'o}n en \textit  {Simulink}}}{3}}
\newlabel{fig: Solucion}{{2}{3}}
\newlabel{eq: Jacobiano}{{18}{3}}
\newlabel{eq: determinante}{{19}{3}}
\newlabel{eq: traza}{{20}{3}}
\bibdata{references}
\bibstyle{alpha}
\@writefile{lof}{\contentsline {figure}{\numberline {3}{\ignorespaces  Soluci\IeC {\'o}n del sistema con A=1, B=3 propuesta por \cite  {eldios}}}{4}}
\newlabel{fig: SolucionLibro}{{3}{4}}
\@writefile{toc}{\contentsline {section}{\numberline {IV}Objetivos}{4}}
\@writefile{toc}{\contentsline {subsection}{\numberline {IV-A}General}{4}}
\@writefile{toc}{\contentsline {subsection}{\numberline {IV-B}Espec\IeC {\'\i }ficos}{4}}
\@writefile{toc}{\contentsline {section}{\numberline {V}REFERENCIAS}{4}}
